<?xml version="1.0" encoding="UTF-8" standalone="no"?>
<!-- Created with Inkscape (http://www.inkscape.org/) -->

<svg
   xmlns:dc="http://purl.org/dc/elements/1.1/"
   xmlns:cc="http://creativecommons.org/ns#"
   xmlns:rdf="http://www.w3.org/1999/02/22-rdf-syntax-ns#"
   xmlns:svg="http://www.w3.org/2000/svg"
   xmlns="http://www.w3.org/2000/svg"
   xmlns:sodipodi="http://sodipodi.sourceforge.net/DTD/sodipodi-0.dtd"
   xmlns:inkscape="http://www.inkscape.org/namespaces/inkscape"
   width="210mm"
   height="297mm"
   viewBox="0 0 210 297"
   version="1.1"
   id="svg8"
   inkscape:version="0.92.4 5da689c313, 2019-01-14"
   sodipodi:docname="drawing.svg">
  <defs
     id="defs2" />
  <sodipodi:namedview
     id="base"
     pagecolor="#ffffff"
     bordercolor="#666666"
     borderopacity="1.0"
     inkscape:pageopacity="0.0"
     inkscape:pageshadow="2"
     inkscape:zoom="0.35"
     inkscape:cx="400"
     inkscape:cy="560"
     inkscape:document-units="mm"
     inkscape:current-layer="layer1"
     showgrid="false"
     inkscape:window-width="1324"
     inkscape:window-height="705"
     inkscape:window-x="20"
     inkscape:window-y="20"
     inkscape:window-maximized="0" />
  <metadata
     id="metadata5">
    <rdf:RDF>
      <cc:Work
         rdf:about="">
        <dc:format>image/svg+xml</dc:format>
        <dc:type
           rdf:resource="http://purl.org/dc/dcmitype/StillImage" />
        <dc:title></dc:title>
      </cc:Work>
    </rdf:RDF>
  </metadata>
  <g
     inkscape:label="Layer 1"
     inkscape:groupmode="layer"
     id="layer1">
    <path
       style="stroke-width:0.02863584"
       inkscape:connector-curvature="0"
       d="M 41.749529,6.933612 C 41.634987,7.0481545 36.995978,7.1054258 31.440627,7.0767906 25.913908,7.0481516 19.069941,7.1054297 16.292265,7.2199693 l -5.09718,0.2004518 V 8.365404 c 0,0.6872599 -0.143179,0.9736181 -0.458174,0.9736181 -0.372265,0 -0.429536,0.4295378 -0.286358,3.0640359 0.05728,1.718151 0.257722,12.571134 0.429537,24.140015 0.171816,11.568881 0.429538,24.512281 0.544081,28.779023 0.114544,4.238105 0.114544,7.78895 0,7.817586 -0.143179,0.05728 -0.114543,0.28636 0.05728,0.486809 0.229087,0.257723 -0.114543,0.400903 -1.4890638,0.544081 -2.4054099,0.229087 -2.9494911,0.773168 -2.9781271,2.978129 -0.057275,3.665391 -0.4295371,4.324008 -2.434046,4.352645 -1.8326957,0 -1.9758763,1.116804 -2.0045055,14.289291 0,9.134823 0.028649,9.535733 0.6013496,10.337533 0.486808,0.65862 0.8590726,0.85907 2.1190511,1.00225 l 1.5177002,0.20046 0.2004506,2.60586 c 0.3436306,4.58174 0.973619,5.92762 2.720405,5.92762 1.2599759,0 2.4913179,0.62999 2.8063119,1.40315 0.257723,0.74454 0.05728,13.94566 -0.34363,19.93055 -0.08591,1.40316 -0.286359,9.47847 -0.429537,17.8974 -0.14318,8.41894 -0.343631,16.7806 -0.458173,18.55603 -0.200452,3.17858 -0.171816,3.23585 0.54408,3.89447 1.259977,1.14543 3.178578,1.4318 8.189851,1.14543 6.213977,-0.34363 17.926038,-0.22908 55.725352,0.60137 22.192774,0.4868 55.32445,0.54408 59.84891,0.0859 1.88997,-0.20044 11.51162,-0.34362 24.05412,-0.37226 l 20.90416,-0.0573 0.17181,-4.40992 c 0.11455,-2.43404 0.28637,-7.53123 0.4009,-11.36843 l 0.22909,-6.92988 h 0.94499 c 0.51544,0 1.00225,-0.11454 1.08816,-0.22909 0.0859,-0.14317 4.75356,-0.34362 10.39481,-0.45816 5.64126,-0.0859 10.7098,-0.25773 11.28253,-0.34364 1.03088,-0.17181 1.05951,-0.22909 1.37451,-1.80406 0.40091,-2.06177 0.74453,-19.84464 0.45817,-23.88228 -0.14317,-2.34814 -0.28635,-3.06405 -0.60134,-3.06405 -0.22909,0 -0.40091,-0.1718 -0.40091,-0.4009 0,-0.91634 -3.5222,-1.2027 -17.95468,-1.48906 -3.75128,-0.0573 -7.04441,-0.20045 -7.30213,-0.28636 -0.68726,-0.20045 -0.68726,-1.28861 -0.45817,-25.457256 0.11454,-11.654794 0.14317,-26.230436 0.0572,-32.358507 -0.14319,-8.73393 -0.0572,-12.5425 0.28636,-17.439229 0.48681,-6.672151 0.60134,-20.675078 0.25772,-32.415773 l -0.17178,-6.586212 -0.83044,-0.3722667 C 179.14429,9.339032 174.93481,9.339032 157.5815,9.6253872 145.81217,9.8258371 134.44374,9.9976528 132.32468,10.026289 127.02706,10.054928 106.15153,9.3963003 101.2548,9.0526698 99.049826,8.8808551 92.921759,8.623133 87.652757,8.4513173 82.383794,8.2794937 76.312995,8.0217716 74.193942,7.9072282 72.074891,7.7640486 66.347722,7.5349626 61.450994,7.3631469 56.582898,7.2199683 50.197105,6.9908813 47.276249,6.8763388 44.355394,6.7904315 41.892712,6.7904315 41.749532,6.9336169 Z M 27.48888,12.947138 c 0.744531,0.143181 0.887711,0.314995 0.887711,1.002256 v 0.801803 l -4.238105,-0.143179 c -3.636753,-0.143179 -4.295376,-0.114543 -4.610372,0.286358 -0.54408,0.629989 -0.143178,9.478464 0.458174,10.079816 0.314994,0.314996 1.374521,0.400903 4.810821,0.400903 5.125818,0 5.011274,0.05728 5.011274,-2.863585 v -1.775421 l 0.944983,0.171814 c 1.861329,0.343631 6.843965,0.744532 7.130325,0.572717 0.171815,-0.114544 0.20045,-1.632243 0.08591,-4.26674 l -0.200451,-4.06629 4.667642,-0.171815 c 2.577226,-0.08591 7.731678,-0.08591 11.425702,0.02864 l 6.729423,0.200452 0.08591,3.779931 c 0.05727,3.293122 0.143177,3.808567 0.572714,3.92311 0.773168,0.229086 10.165726,0.744531 13.802477,0.744531 4.123561,0 9.764821,-0.229086 9.965276,-0.429537 0.343628,-0.34363 0.601351,-3.321757 0.429541,-4.982636 l -0.171817,-1.832694 4.839453,0.171815 c 2.663139,0.08591 6.586246,0.314995 8.705306,0.458173 5.841693,0.458174 28.721743,1.03089 36.739783,0.944984 l 7.07305,-0.05728 v 1.059527 c 0,1.660879 0.51545,3.23585 1.08816,3.264487 3.26448,0.171814 6.32852,0.05728 6.72943,-0.257724 0.28636,-0.257722 0.51544,-1.116797 0.62998,-2.519954 l 0.20046,-2.119052 h 11.8266 11.82659 l 0.20047,9.650279 c 0.20044,9.421194 0.0859,14.174743 -0.42955,18.269669 -0.14318,1.088162 -0.25772,4.667642 -0.28636,7.932127 v 5.956256 h -10.68116 c -10.33755,0 -10.68117,-0.02864 -11.0248,-0.572717 -0.31499,-0.544081 -0.65862,-0.572718 -5.18309,-0.572718 -2.6345,0 -5.52671,-0.143177 -6.35716,-0.286358 -1.83269,-0.343629 -6.98714,-0.458172 -7.9035,-0.171814 -0.34363,0.114542 -0.71588,0.429537 -0.80179,0.744533 -0.14319,0.486807 -1.14544,0.515445 -23.71048,0.715895 -31.814425,0.28636 -32.444413,0.28636 -34.420286,-0.14318 C 73.077146,56.616797 67.579064,56.502253 54.292033,56.416346 44.212218,56.387716 31.755623,56.244534 26.62981,56.129992 L 17.265889,55.958176 17.094073,48.455585 C 17.008163,44.36066 16.893622,34.710381 16.836351,27.035975 l -0.08591,-13.974292 4.61037,-0.08591 c 2.519954,-0.02864 4.724914,-0.114543 4.896728,-0.143179 0.171816,-0.02864 0.744533,0.02864 1.231343,0.114543 z m 9.048925,0.458175 c 0.05728,0.200451 0.171816,1.861329 0.257723,3.665387 l 0.171815,3.293122 -1.489063,-0.05728 c -0.830439,-0.02863 -2.462682,-0.143175 -3.579481,-0.229083 -1.889965,-0.171815 -2.090416,-0.257723 -2.119053,-0.801804 -0.02864,-1.947238 -0.171815,-3.665387 -0.4009,-4.868093 L 29.149758,13.06168 h 3.636751 c 2.634499,0 3.665389,0.08591 3.751296,0.34363 z m 35.937983,0.486809 c 3.694023,0.171816 7.788951,0.400902 9.048928,0.486809 l 2.348142,0.171816 0.171809,1.03089 c 0.08592,0.572716 0.171818,1.86133 0.171818,2.806312 v 1.775423 l -5.211725,0.20045 c -5.268994,0.200451 -16.666059,0 -17.15287,-0.314994 -0.143177,-0.08591 -0.257722,-1.660879 -0.257722,-3.493573 v -3.379029 l 2.090417,0.200451 c 1.116799,0.114543 5.097181,0.34363 8.791203,0.515445 z m 77.316782,2.863584 c 0,2.319504 0,2.319504 -2.86358,2.319504 -1.66089,0 -2.60587,-0.114544 -2.80632,-0.372266 -0.14318,-0.171816 -0.37227,-0.944984 -0.45817,-1.689515 l -0.20045,-1.345885 1.37452,-0.114543 c 0.74454,-0.05727 2.17632,-0.114544 3.17858,-0.14318 l 1.77542,-0.05728 z M 28.748856,19.476111 c 0.34363,5.44081 0.715898,5.011272 -4.152197,4.839458 -2.262231,-0.08591 -4.123562,-0.171815 -4.123562,-0.200451 -0.02864,0 -0.114542,-1.918601 -0.20045,-4.266741 l -0.171815,-4.238104 4.20947,0.08591 4.209468,0.08591 z M 140.80091,57.475876 c 0.91635,0.171815 3.69403,0.34363 6.12808,0.372266 l 4.43855,0.02864 -0.0286,2.20496 c -0.0287,1.202705 -0.11455,2.376776 -0.20046,2.605861 -0.11453,0.343631 -1.08815,0.372268 -5.69852,0.257722 -3.0354,-0.05727 -6.90124,-0.143177 -8.6194,-0.171813 l -3.06402,-0.02864 v -2.605861 c 0,-1.431793 0.0859,-2.691771 0.20044,-2.777678 0.28636,-0.314993 4.98264,-0.229086 6.84397,0.114544 z M 19.499479,64.463021 c 0,1.317247 0.114544,4.324012 0.286358,6.643516 0.14318,2.34814 0.314995,7.645771 0.372267,11.826602 0.08591,6.099436 0.200451,7.788944 0.572716,8.648027 l 0.458174,1.088157 H 25.4271 c 2.319503,0 5.870346,0.0859 7.84622,0.200454 3.407665,0.143185 3.665388,0.114546 3.92311,-0.400898 0.286358,-0.515444 0.74453,-16.551519 0.773168,-26.230435 v -3.923111 h 3.379029 3.350394 v 3.694023 c 0,2.97813 0.08591,3.808567 0.458175,4.152198 0.229086,0.257722 0.601352,0.458174 0.773167,0.458174 4.553099,0.05727 11.654789,0.286358 13.000671,0.429538 2.319503,0.286358 2.376776,0.143178 2.376776,-4.89673 v -3.923111 l 3.951746,0.20045 c 2.147688,0.114545 5.784442,0.400903 8.075308,0.62999 2.290868,0.200451 5.011274,0.400901 6.070799,0.400901 h 1.889966 l 0.114543,1.574972 0.08591,1.574971 h -2.090418 c -1.889966,0 -2.090416,0.05728 -2.319504,0.629987 -0.143179,0.372268 -0.314994,3.407667 -0.372264,6.758061 -0.171816,7.101686 -0.343631,6.729422 3.006763,7.073057 l 1.9186,0.200447 v 1.517699 c 0,1.431792 -0.02864,1.517697 -0.83044,1.660877 -0.544079,0.114543 -0.859075,0.400903 -0.973617,0.830443 -0.08591,0.372265 -0.171816,3.464933 -0.200451,6.872599 -0.02864,5.927618 0,6.242618 0.572715,6.729423 0.458175,0.400908 0.572719,0.830444 0.572719,2.405418 0,1.74678 -0.05728,1.91859 -0.629989,2.03314 -0.916347,0.17181 -38.343393,-0.28636 -41.951512,-0.51544 l -2.949491,-0.17182 -0.02864,-1.88997 c -0.05728,-4.982632 0.02864,-4.896725 -6.099434,-4.982632 -6.0708,-0.0859 -6.786696,-0.0287 -7.24487,0.429537 -0.286357,0.286361 -0.486809,1.460435 -0.601351,3.522211 l -0.200451,3.121304 -1.489064,0.0859 c -1.374521,0.0859 -1.5177,0.0287 -1.632243,-0.57271 -0.08591,-0.37227 -0.200449,-9.592998 -0.25772,-20.503256 L 17.552242,62.028975 h 0.973618 0.973619 z m 16.952419,-1.889966 c 0.229087,0.200451 0.286358,1.288613 0.257723,3.608116 l -0.02864,1.718151 -5.784441,-0.02864 c -3.207214,0 -6.758057,-0.114544 -7.874856,-0.257722 -1.374521,-0.143181 -2.090417,-0.114545 -2.090417,0.08591 0,0.143178 0.229087,0.372265 0.486809,0.458173 1.03089,0.400903 6.12807,0.687261 9.965274,0.572719 2.20496,-0.08591 4.295376,-0.05728 4.667641,0.02864 l 0.658625,0.171815 -0.171815,6.528972 c -0.114543,3.579481 -0.229087,8.648025 -0.257723,11.225251 l -0.08591,4.696275 H 28.977941 21.790345 L 21.475349,90.378453 C 21.303538,89.83437 21.074451,84.67993 20.931272,78.924123 20.788092,73.168319 20.587641,67.040247 20.473097,65.264823 l -0.20045,-3.178578 7.989401,0.14318 c 4.381283,0.08591 8.075308,0.229087 8.18985,0.34363 z M 59.24603,62.20079 c 0.601352,0.171816 0.629987,0.286357 0.629987,3.951746 v 3.751295 l -6.786694,-0.08591 c -3.751296,-0.02864 -6.987145,-0.114542 -7.15896,-0.200451 -0.286359,-0.08591 -0.372268,-1.116797 -0.372268,-3.865839 v -3.722658 h 6.528973 c 3.579481,0 6.786697,0.08591 7.158962,0.171815 z m 32.215325,4.495826 c -0.229085,4.896731 -0.88771,4.524465 8.733935,4.696281 l 7.6744,0.143178 0.37227,-0.744532 c 0.31499,-0.544082 0.37226,-1.574972 0.22909,-4.324014 l -0.17182,-3.579478 h 1.25997 1.23134 l 0.11455,2.978126 c 0.0287,1.632242 0.17182,3.092672 0.28636,3.178579 0.28636,0.314994 16.32243,0.372267 16.92378,0.08591 0.40091,-0.20045 0.48682,-0.687261 0.48682,-3.235849 v -3.006763 h 1.88996 c 1.17407,0 1.80406,0.114542 1.68952,0.286356 -0.0859,0.171816 -0.0859,0.544081 0,0.859076 0.17181,0.544081 0.4009,0.572717 2.80631,0.515445 1.46043,-0.02864 5.87035,0.05728 9.85073,0.171815 l 7.21624,0.257723 0.57271,-0.973618 0.57272,-0.973619 7.81758,0.02864 c 4.29538,0 9.07756,0.114542 10.62389,0.229086 l 2.77768,0.229087 v 7.559862 7.559863 h -0.97361 c -1.23134,0 -1.20271,0.02864 -1.14544,-7.187595 l 0.0287,-5.555354 h 0.65862 c 0.37227,0 0.7159,-0.171815 0.77317,-0.343631 0.14317,-0.429538 -0.91634,-0.744532 -1.71815,-0.544082 -0.62999,0.14318 -0.62999,0.229087 -0.68727,7.044419 -0.0859,6.643515 -0.0572,6.901238 0.51545,7.473956 0.45818,0.458173 0.8018,0.544076 1.57497,0.400899 l 0.97362,-0.171814 v 1.574975 1.574965 l -1.20271,0.08592 -1.23134,0.08591 -0.20044,2.863585 c -0.0859,1.574977 -0.28636,5.898984 -0.40091,9.62165 -0.20044,7.273497 -0.11455,7.989387 1.17408,7.989387 1.25997,0 1.57497,0.28636 1.57497,1.4318 0,1.03089 -0.0287,1.08816 -1.17408,1.23133 -0.62998,0.0859 -1.23134,0.22909 -1.31725,0.315 -0.0859,0.0859 -0.22908,3.49357 -0.315,7.5885 -0.11453,5.58399 -0.0572,7.55986 0.20047,7.87486 0.20044,0.22908 0.85906,0.4868 1.48905,0.60135 1.08817,0.20045 1.14544,0.25772 1.05953,1.08816 l -0.0859,0.91635 h -7.87485 c -4.32401,0 -8.81985,0.11454 -9.93664,0.25772 l -2.09042,0.25773 v 2.74904 2.77767 l 22.96595,0.0287 c 16.58015,0 22.99458,0.11454 23.08049,0.34362 0.0573,0.17182 0.28636,0.315 0.51544,0.315 0.34363,0 0.40091,1.2027 0.37227,7.50259 0,4.15219 -0.11455,8.16122 -0.20045,8.96302 l -0.20046,1.43179 -3.29312,0.22908 c -4.40991,0.315 -29.60946,0.22909 -31.06988,-0.0859 -0.62999,-0.14318 -3.37904,-0.28636 -6.0708,-0.28636 h -4.954 v 3.4363 c 0,2.83495 -0.0859,3.4363 -0.42954,3.4363 -1.00226,0 -1.46042,2.83495 -1.54633,9.85073 -0.0573,4.43856 -0.0573,4.58174 0.57271,5.06854 0.34363,0.25773 0.65862,0.80181 0.68726,1.23136 l 0.0287,0.74452 h -6.75806 c -3.69403,0 -7.78896,0.0859 -9.1062,0.20045 l -2.34814,0.17182 0.1718,-2.46268 c 0.17183,-2.06179 0.11455,-2.57723 -0.28635,-3.20721 -0.48681,-0.74454 -0.57271,-0.74454 -2.40542,-0.57273 -1.05952,0.11454 -4.69626,0.25773 -8.0753,0.28636 -5.24036,0.0573 -6.1567,0.11454 -6.12807,0.48681 0.0287,0.22908 0.11455,1.74679 0.22909,3.3504 l 0.20045,2.92086 -1.08816,-0.0859 -1.08817,-0.0859 -0.28636,-3.00676 c -0.1718,-1.66088 -0.40089,-3.17858 -0.54408,-3.37903 -0.1718,-0.31499 -2.11904,-0.37227 -9.73618,-0.28635 l -9.478462,0.0859 0.08591,3.20722 0.08591,3.23585 h -1.574974 -1.603603 l -0.02866,-2.80632 c -0.02866,-7.50259 -0.14318,-9.79346 -0.42954,-10.07982 -0.200448,-0.20044 -1.632243,-0.34362 -3.636749,-0.37226 -1.804057,-0.0287 -3.379031,-0.14318 -3.464935,-0.22908 -0.114551,-0.0859 -0.257723,-7.47396 -0.372273,-16.37971 l -0.17181,-16.23653 h 0.60135 c 0.944985,0 1.145432,-1.37451 1.202708,-7.81758 l 0.02865,-5.95625 -0.887718,-0.28637 -0.859073,-0.31499 v -6.67214 -6.700791 l 0.944986,-0.0859 c 0.859072,-0.0859 0.916348,-0.143186 1.116795,-1.517703 0.200455,-1.574972 0.02866,-10.251625 -0.229085,-11.969784 -0.08591,-0.572711 -0.343628,-1.259975 -0.572721,-1.489059 -0.343627,-0.343636 -0.45817,-2.319504 -0.601349,-10.996166 L 87.280634,63.203138 89.25651,63.11723 c 1.088166,-0.05727 2.061781,-0.05727 2.176323,0 0.114543,0.02864 0.143181,1.66088 0.02865,3.579481 z m 15.520625,-0.114542 v 3.57948 l -0.77317,-0.02864 c -0.45817,-0.02864 -3.49357,-0.02864 -6.758057,-0.05728 -4.295375,-0.02864 -6.099436,-0.143177 -6.443063,-0.4009 -0.400903,-0.28636 -0.42954,-0.773168 -0.28636,-3.579481 l 0.171818,-3.207214 7.04442,0.05727 7.044412,0.08591 z m 20.30282,-1.947239 c 0.0859,0.97362 0.17181,2.147688 0.17181,2.605861 v 0.801806 l -7.64576,-0.05728 -7.67442,-0.08591 -0.0859,-2.519953 -0.0859,-2.491318 h 7.55986 7.55985 z m -45.645542,8.848477 c 0,3.77993 -0.114542,6.042164 -0.286357,6.156707 -0.171816,0.114543 -1.116798,0.114543 -2.090419,0 l -1.77542,-0.200451 0.171816,-5.898983 c 0.114542,-3.264487 0.20045,-5.956258 0.229085,-5.984893 0.05728,-0.114543 3.321758,-0.229088 3.550846,-0.14318 0.114542,0.05728 0.200449,2.777679 0.200449,6.0708 z m 92.608322,10.566623 c 0.0859,0.143179 0.0859,4.32402 -0.0287,9.306647 l -0.17182,9.077568 -0.74453,-0.0859 c -1.08815,-0.14319 -1.20271,-1.2027 -0.88771,-8.819836 0.17182,-3.694036 0.28636,-7.416683 0.28636,-8.247126 0,-1.374517 0.0573,-1.489068 0.68725,-1.489068 0.40091,0 0.77318,0.114551 0.85909,0.257723 z m -89.687467,2.319511 h 2.519958 l 0.02866,2.348128 c 0.02866,1.31726 0.05723,3.865842 0.08591,5.669906 l 0.05731,3.321758 -2.863586,-0.114547 c -1.60361,-0.0572 -2.92086,-0.143175 -2.949495,-0.171814 -0.114545,-0.114547 -0.257723,-11.368429 -0.114545,-11.482971 0.05728,-0.08591 0.257725,-0.02865 0.42954,0.143179 0.143177,0.143181 1.431791,0.286361 2.80631,0.286361 z m -51.945418,10.73844 c 0.515445,0.0287 0.973619,0.114537 1.03089,0.171815 0.05728,0.0572 0.171814,1.231342 0.257722,2.577231 l 0.171815,2.462678 -5.898982,0.20044 c -3.23585,0.0859 -5.927619,0.14318 -5.956256,0.11455 -0.05728,-0.0573 0,-1.43179 0.08591,-3.03539 l 0.143179,-2.978129 4.610372,0.200444 c 2.519953,0.114547 5.039907,0.257722 5.555352,0.286361 z M 174.13304,114.31802 v 7.01579 l -0.77317,-0.0859 -0.8018,-0.0859 -0.0286,-6.72941 c 0,-3.69403 0.0286,-6.81534 0.0859,-6.95851 0.0573,-0.11455 0.42955,-0.20046 0.83045,-0.20046 h 0.68727 z M 40.346373,108.87721 c 4.925365,0.11455 8.991654,0.28635 9.048926,0.37227 0.05728,0.0859 0.20045,3.49357 0.314996,7.53122 l 0.229085,7.35941 -1.088161,0.20045 c -0.572717,0.0859 -3.464937,0.0859 -6.385795,-0.0286 -2.94949,-0.11454 -6.987144,-0.22908 -8.991654,-0.25772 l -3.636752,-0.0287 -0.314994,-2.00449 c -0.372266,-2.1477 -2.176323,-11.42571 -2.462681,-12.57115 -0.14318,-0.65862 -0.08591,-0.71589 1.08816,-0.83043 0.658625,-0.0573 1.689515,-0.0859 2.233596,-0.0287 0.544083,0.0572 5.039909,0.20044 9.965274,0.28635 z m -15.291541,0.74454 c 0.14318,0.94498 0.744533,13.80247 0.658625,13.88838 -0.02864,0.0286 -1.632243,-0.0287 -3.579481,-0.11455 l -3.493573,-0.17181 v -4.49583 c 0,-2.46269 -0.08591,-5.6699 -0.171814,-7.10169 l -0.200451,-2.60585 1.403156,-0.11456 c 0.773168,-0.0572 2.262232,-0.11454 3.321759,-0.14317 l 1.918602,-0.0573 z m 1.317251,-0.34363 c 0,0.28635 0.572715,3.43629 1.259975,6.92986 1.71815,8.67667 1.689515,7.84622 0.314995,7.73169 -0.629987,-0.0573 -1.231341,-0.22909 -1.317248,-0.40091 -0.08591,-0.14318 -0.257722,-3.26449 -0.372268,-6.90123 -0.114542,-3.6654 -0.286357,-6.92989 -0.372264,-7.30214 -0.08591,-0.37227 -0.02864,-0.62999 0.171815,-0.62999 0.171814,0 0.314995,0.25772 0.314995,0.57272 z m 48.194124,-0.0573 6.213977,0.0573 v 2.06177 c 0,1.46043 -0.143181,2.17633 -0.458173,2.5486 -0.515445,0.57271 -0.48681,0 -0.229088,7.41668 0.114542,3.23585 0.314995,5.89899 0.429538,5.95625 0.143179,0.0573 0.257723,0.68726 0.257723,1.37452 v 1.28862 l -1.202706,-0.17182 c -2.147688,-0.28635 -2.090416,-0.48681 -2.176323,7.87486 -0.08591,5.52672 -0.02864,7.55986 0.229085,7.87485 0.200452,0.2291 0.97362,0.51545 1.746788,0.60136 1.403156,0.20045 1.403156,0.20045 1.403156,1.25998 0,0.57271 0.08591,2.60586 0.171814,4.49582 l 0.20045,3.40766 -6.156704,0.40091 c -3.379031,0.20045 -6.614879,0.28636 -7.187598,0.17182 -1.804057,-0.34363 -1.861329,-0.0286 -2.090416,9.22073 l -0.200451,8.10394 -2.033146,-0.22908 c -1.116797,-0.11454 -4.438554,-0.22908 -7.388047,-0.20044 l -5.383539,0.0287 -0.02864,-6.32852 c -0.02864,-6.52897 -0.14318,-8.59076 -0.515445,-9.30664 -0.20045,-0.315 -1.259979,-0.40091 -5.068545,-0.48682 -5.784439,-0.0859 -12.771585,-0.40091 -13.086581,-0.60135 -0.114542,-0.0573 -3.379028,-0.11455 -7.216232,-0.11455 l -7.015781,0.0287 v -4.29538 -4.26674 l 2.462682,0.17182 c 2.119053,0.14317 2.548591,0.11454 2.834949,-0.28636 0.257723,-0.37227 0.314994,-2.29087 0.229087,-7.41669 -0.05727,-3.83721 -0.171815,-7.35941 -0.257723,-7.87485 -0.171815,-1.05953 -1.145434,-1.51771 -3.350394,-1.51771 h -1.43179 l 0.200452,-1.51769 c 0.08591,-0.8018 0.171815,-2.20496 0.171815,-3.06404 v -1.57497 l 2.777676,0.0287 c 1.546336,0.0287 3.72266,0.20045 4.810822,0.37227 1.116798,0.20044 2.978129,0.31499 4.152197,0.31499 1.17407,-0.0287 4.524464,0.0859 7.445319,0.28636 2.920856,0.17182 7.044417,0.28636 9.16347,0.22908 l 3.865838,-0.0859 -0.05728,-5.58399 c -0.02864,-3.06404 -0.143178,-6.75805 -0.229086,-8.16121 l -0.171814,-2.57723 h 8.963017 c 4.925367,0.0287 11.769333,0.0572 15.205635,0.0859 z m 10.452083,6.04216 1.775421,0.0287 v 4.06629 c 0,2.26224 -0.08591,4.58174 -0.171818,5.15445 l -0.200447,1.08817 h -2.204961 -2.204959 l -0.200452,-4.52447 c -0.08591,-2.46268 -0.257723,-4.83945 -0.34363,-5.26899 -0.171815,-0.71589 -0.114543,-0.74453 0.773167,-0.68726 0.544083,0.0573 1.775427,0.11453 2.777679,0.14317 z m -4.238106,22.65096 v 7.15896 l -0.773168,-0.17183 c -0.458173,-0.0859 -0.944983,-0.20044 -1.145433,-0.25772 -0.257723,-0.0859 -0.343631,-1.94724 -0.372268,-6.98713 l -0.02864,-6.90125 h 1.17407 1.145434 z m -59.333467,-6.35718 c 0.257722,0.20046 0.400902,2.06179 0.486809,7.61714 l 0.114544,7.38805 -1.603608,-0.20045 c -2.691769,-0.34363 -2.491318,0.17181 -2.290868,-5.84171 0.114544,-2.92086 0.200451,-6.18535 0.200451,-7.27351 v -1.9186 h 1.374521 c 0.744531,0 1.517699,0.11455 1.718151,0.22908 z m 147.388693,23.99685 c 5.12581,0.11454 6.01353,0.20044 5.92762,0.54408 -0.0573,0.25772 0.11454,0.51544 0.37227,0.60135 0.34362,0.14318 0.42953,0.71589 0.42953,2.94949 0,1.51769 -0.14318,3.26449 -0.28636,3.89447 -0.14317,0.62999 -0.37227,2.97813 -0.45817,5.21172 l -0.20046,4.09493 h -7.13032 -7.10169 v -0.71589 c 0,-0.57272 0.14319,-0.7159 0.7159,-0.7159 0.40091,0 0.83043,-0.22908 0.97362,-0.54408 0.17181,-0.28636 0.315,-3.32175 0.34363,-7.04442 l 0.0573,-6.50034 -0.80181,-0.62998 c -1.05953,-0.85907 -0.83043,-1.77542 0.37226,-1.48907 0.42955,0.11455 3.49357,0.25772 6.7867,0.34364 z m -87.711597,9.42122 c 0.08591,4.5531 0.143181,8.33303 0.114543,8.33303 0,0.0287 -3.235849,-0.0287 -7.187594,-0.14319 l -7.158963,-0.1718 0.05728,-6.72942 c 0.05728,-3.69404 0.14318,-7.24488 0.229088,-7.9035 l 0.171814,-1.14544 3.493572,-0.0859 c 1.918603,-0.0287 4.324013,-0.17182 5.354903,-0.28635 1.030891,-0.11455 2.519954,-0.20047 3.321756,-0.20047 l 1.460429,0.0287 z m -54.408101,-2.7204 c 0.257722,7.93212 0.314994,8.61938 0.658623,8.50484 0.171816,-0.0859 0.257723,-2.3195 0.229088,-6.52897 l -0.05728,-6.41443 0.400903,2.43404 c 0.229087,1.34589 0.54408,3.32177 0.715895,4.43856 0.200452,1.08816 0.458175,2.77767 0.601353,3.72266 0.171815,0.94498 0.34363,2.17632 0.458175,2.74905 l 0.143178,1.03088 -5.813078,0.14318 c -3.207213,0.0859 -5.927618,0.0572 -6.042161,-0.0287 -0.114544,-0.0859 -0.229087,-3.57948 -0.286359,-7.76032 l -0.08591,-7.5885 h 4.438557 4.438555 z m 5.669897,-5.15445 c 1.489063,0.14317 5.870348,0.34362 9.736186,0.45816 3.865838,0.11455 7.044416,0.2291 7.10169,0.25773 0.05728,0.0573 0.143179,12.19887 0.08591,14.14611 l -0.02864,0.97361 -5.498081,-0.17181 c -3.035401,-0.11455 -7.216234,-0.28635 -9.278015,-0.37227 l -3.751294,-0.20045 -0.314995,-1.88997 c -0.20045,-1.03089 -0.658625,-3.8372 -1.059525,-6.18534 -0.372268,-2.37677 -0.801806,-4.89673 -0.944983,-5.64125 -0.14318,-0.74454 -0.200452,-1.4318 -0.114545,-1.51771 0.200452,-0.20045 0.859075,-0.17181 4.06629,0.14319 z m 126.284071,1.08815 c 1.9186,-0.0859 2.17633,0.0859 2.11906,1.46043 -0.0287,0.4868 -0.0572,2.94949 -0.0859,5.46945 l -0.0287,4.58173 h -1.97587 c -1.08815,0 -2.37677,-0.0859 -2.89222,-0.20044 l -0.94498,-0.17183 0.17182,-5.66989 c 0.0859,-3.12131 0.22908,-5.81308 0.34362,-5.98489 0.14318,-0.22909 0.4009,-0.20045 0.88772,0.14318 0.45817,0.28636 1.2027,0.40089 2.40541,0.37226 z m -67.236963,3.29312 c 1.804058,-0.0287 2.204961,0.0287 2.290866,0.40091 0.05731,0.25772 0.05731,3.00676 0,6.1567 l -0.08591,5.69854 -3.207213,-0.0859 -3.207213,-0.0859 -0.08592,-6.24261 -0.05723,-6.24261 1.059528,0.22908 c 0.60135,0.11454 2.09041,0.20045 3.293118,0.17181 z m 24.712733,6.50034 c 0.0859,0.14318 0.22909,1.48907 0.28636,3.00676 l 0.14319,2.72041 h -8.70531 -8.676659 l -0.200454,-1.74678 c -0.31499,-3.14995 -0.229083,-4.03765 0.343639,-3.89448 0.257722,0.0859 3.207214,0.0572 6.500334,-0.0573 9.27801,-0.34363 10.10846,-0.34363 10.3089,-0.0286 z m 10.73845,0.54408 c 1.97587,0 4.639,-0.11454 5.95626,-0.20045 l 2.37676,-0.20045 -0.0859,2.57722 -0.0859,2.57723 -1.14543,0.20045 c -0.63,0.11455 -3.80857,0.28637 -7.07306,0.40091 l -5.92762,0.20045 -0.0859,-2.92085 c -0.0572,-1.63225 -0.0572,-2.97813 0,-3.00677 0.0287,-0.0572 0.62999,0 1.28861,0.14317 0.65863,0.11455 2.80631,0.22909 4.78219,0.22909 z"
       id="path4" />
    <path
       style="stroke-width:0.02863584"
       inkscape:connector-curvature="0"
       d="m 42.551333,15.180734 c -2.519954,0.801805 -3.665387,3.321758 -2.519954,5.526718 0.658625,1.288613 1.71815,1.86133 3.665388,2.00451 2.519954,0.20045 4.152197,-1.460428 4.152197,-4.20947 0,-3.064035 -2.004509,-4.324012 -5.297631,-3.321758 z m 3.4363,1.460429 c 1.345886,1.317249 0.830441,4.037654 -0.916345,4.868093 -2.00451,0.944983 -4.438556,-0.257722 -4.438556,-2.20496 0,-1.546336 0.314995,-2.20496 1.288612,-2.834948 1.345886,-0.801804 3.207214,-0.715896 4.066289,0.171815 z"
       id="path6" />
    <path
       style="stroke-width:0.02863584"
       inkscape:connector-curvature="0"
       d="m 159.67194,16.784342 c -0.0859,0.14318 -0.0859,0.400902 0,0.572716 0.0859,0.14318 -0.0859,0.28636 -0.40091,0.28636 -0.315,0 -0.91634,0.286358 -1.34588,0.658623 -0.62999,0.544082 -0.8018,0.973619 -0.91635,2.233597 -0.0859,1.288612 0,1.689515 0.51545,2.348138 0.91634,1.145434 1.74678,1.403157 3.4363,1.030891 1.97587,-0.429538 3.4363,-1.804059 3.4363,-3.207215 0,-1.288613 -1.05953,-2.577225 -2.89221,-3.493572 -1.57498,-0.801804 -1.60361,-0.83044 -1.8327,-0.429538 z m 2.86358,2.405411 c 0.83044,0.801803 1.00225,1.145433 0.85908,1.660878 -0.40091,1.403157 -2.69177,2.548591 -4.12357,2.090417 -0.62999,-0.20045 -1.46042,-1.489063 -1.46042,-2.262231 0,-1.059526 1.57497,-2.147689 3.49357,-2.434047 0.11454,-0.02864 0.65862,0.429538 1.23134,0.944983 z"
       id="path8" />
    <path
       style="stroke-width:0.02863584"
       inkscape:connector-curvature="0"
       d="m 166.54453,17.442967 c -0.91633,0.801803 -1.11679,1.145434 -1.11679,2.033144 0,1.288614 0.77317,2.119052 2.20496,2.376774 1.97588,0.314996 3.63676,-1.002254 3.63676,-2.920855 0,-1.088162 -1.57498,-2.319503 -3.17858,-2.40541 -0.25773,-0.02864 -0.94499,0.400902 -1.54635,0.916347 z m 3.12132,0.944982 c 0.54408,0.515445 0.54408,0.458174 0.17181,1.37452 -0.22908,0.629989 -0.45817,0.744533 -1.51769,0.744533 -1.86134,0 -2.46269,-0.887711 -1.34589,-2.00451 0.68726,-0.68726 2.06177,-0.744532 2.69177,-0.114543 z"
       id="path10" />
    <path
       style="stroke-width:0.02863584"
       inkscape:connector-curvature="0"
       d="m 113.94049,17.672054 c -0.14317,0.08591 -0.22909,0.773167 -0.20045,1.517699 0.0859,1.231341 0,1.403156 -1.11679,2.462682 -0.62999,0.629989 -1.23135,1.145434 -1.28862,1.145434 -0.0573,0 -0.0573,-0.314994 0.0287,-0.715896 0.0573,-0.400901 0.0287,-1.259978 -0.0573,-1.947237 -0.25772,-1.660879 -0.77317,-1.861331 -3.89447,-1.603608 -1.34588,0.114544 -2.69177,0.14318 -3.0354,0.05728 -1.23134,-0.257722 -1.37453,0.458173 -1.48906,6.643515 -0.14319,6.843967 -0.37227,6.443066 3.46493,6.299887 1.37453,-0.05728 2.57722,0.02864 2.66314,0.171814 0.45816,0.744533 1.94724,0.05728 4.26674,-2.004508 l 1.14543,-1.03089 0.0859,1.632243 0.0859,1.603605 1.34589,0.114546 c 1.6036,0.171814 4.89673,-0.229088 5.38353,-0.658625 0.48682,-0.400903 1.71816,-12.055691 1.37452,-13.000674 -0.0859,-0.229086 -0.45817,-0.515445 -0.77317,-0.629988 -0.74452,-0.257723 -7.55986,-0.314994 -7.98939,-0.05728 z m 7.55987,1.088161 c 0.11454,0.114544 0.0287,2.319503 -0.20046,4.89673 -0.22908,2.605862 -0.42953,5.039908 -0.42953,5.440811 -0.0287,1.202706 -0.34363,1.374519 -2.77768,1.57497 l -2.37677,0.229087 0.0859,-1.746787 0.0573,-1.71815 2.37678,-1.746787 c 1.28861,-0.944983 2.34813,-1.947237 2.34813,-2.176324 0,-0.48681 -1.08816,-2.348139 -2.34813,-3.92311 l -0.83044,-1.059527 0.8018,-0.114543 c 0.94498,-0.114544 3.00676,0.08591 3.29312,0.34363 z M 116.575,18.645672 c 0,0.05728 -0.37227,0.314994 -0.83045,0.544081 -0.77316,0.400902 -0.83043,0.400902 -0.97362,-0.114543 -0.11453,-0.486809 0,-0.572718 0.83045,-0.572718 0.54407,0 0.97362,0.05728 0.97362,0.14318 z m -6.2999,2.519954 c 0,1.002255 0.11455,1.918601 0.25772,2.061781 0.25772,0.257722 -0.7159,1.116798 -3.75129,3.321757 -1.03089,0.744533 -1.00225,1.059526 0.0859,2.434046 l 0.88771,1.116798 -1.80406,0.08591 c -1.80406,0.08591 -2.43404,-0.200451 -2.11905,-1.03089 0.0859,-0.229086 0.14318,-2.434046 0.14318,-4.925365 v -4.553098 l 2.09042,-0.114543 c 1.1168,-0.02864 2.54859,-0.114544 3.14994,-0.14318 l 1.05953,-0.05728 z m 7.38806,-0.343631 c 0.42953,0.48681 1.00225,1.288613 1.25997,1.746787 l 0.48681,0.887711 -1.94724,1.460428 c -1.08816,0.801804 -3.14993,2.462683 -4.61037,3.665389 -1.43179,1.231342 -2.77768,2.233597 -2.94949,2.233597 -0.315,-0.02864 -2.51996,-2.519957 -2.7204,-3.092673 -0.0287,-0.14318 0.65862,-0.773168 1.57497,-1.431792 0.91635,-0.658625 2.63449,-2.090417 3.80856,-3.235851 1.71816,-1.632243 3.26449,-2.749041 4.23811,-3.092671 0.0573,-0.02864 0.42954,0.372266 0.85908,0.859075 z"
       id="path12" />
    <path
       style="stroke-width:0.02863584"
       inkscape:connector-curvature="0"
       d="m 125.30892,18.502492 c -0.48681,0.171816 -0.57271,0.458174 -0.60134,2.319503 0,1.17407 -0.11455,2.577227 -0.20047,3.121307 -0.34362,1.603608 -0.0287,1.775423 3.43632,2.033146 2.43404,0.171814 3.17857,0.143179 3.46493,-0.143179 0.45817,-0.458174 0.51544,-4.839458 0.0859,-5.984892 -0.37227,-0.973618 -0.54408,-1.03089 -2.9495,-1.23134 -1.14543,-0.08591 -2.20495,-0.200452 -2.37677,-0.229088 -0.14317,-0.05728 -0.54408,0 -0.85908,0.114543 z m 4.83946,1.718151 c 0.14319,0.143179 0.31499,1.231342 0.40091,2.40541 0.14317,2.491319 0.42953,2.319504 -3.17859,1.975874 l -1.97586,-0.171815 0.1718,-1.317248 c 0.11455,-0.715897 0.25773,-1.804059 0.34364,-2.405412 l 0.17181,-1.088161 1.88998,0.171815 c 1.05951,0.08591 2.03313,0.286358 2.17631,0.429537 z"
       id="path14" />
    <path
       style="stroke-width:0.02863584"
       inkscape:connector-curvature="0"
       d="m 133.95695,18.874759 c -0.40091,0.286358 -0.48681,1.145434 -0.62999,5.125815 -0.0859,2.634498 -0.0573,4.839458 0.0859,4.925366 0.62998,0.400901 5.84171,0.02864 6.8726,-0.458175 0.60135,-0.314993 0.62999,-0.458173 0.62999,-4.295375 0,-2.20496 -0.14319,-4.238106 -0.28636,-4.524463 -0.31499,-0.572717 -0.97362,-0.744533 -4.18083,-0.973619 -1.37453,-0.114544 -2.17633,-0.05727 -2.49132,0.200451 z m 5.35491,1.374521 c 0.0572,0.05728 0.14317,1.660877 0.20044,3.522208 l 0.11455,3.436301 -2.51995,0.400901 c -1.4318,0.229087 -2.6345,0.314995 -2.74905,0.171816 -0.11455,-0.14318 -0.14318,-1.975873 -0.0859,-4.094926 l 0.11455,-3.808567 2.40541,0.114543 c 1.31724,0.05727 2.46268,0.171816 2.51996,0.257724 z"
       id="path16" />
    <path
       style="stroke-width:0.02863584"
       inkscape:connector-curvature="0"
       d="m 38.570951,24.37284 -0.887713,0.286359 -0.08591,4.524464 c -0.08591,5.268995 -0.372265,4.896728 3.579481,4.925364 3.493574,0 3.550846,-0.05728 3.665388,-3.77993 0.08591,-2.749043 -0.20045,-5.412176 -0.658625,-5.87035 -0.314993,-0.314993 -4.639006,-0.400902 -5.612624,-0.08591 z m 5.097179,1.603608 c 0.229087,1.145433 0.229087,6.070798 0,6.672151 -0.143177,0.372266 -0.658622,0.458172 -2.720403,0.458172 H 38.399136 V 29.240933 25.40373 l 1.947237,-0.114542 c 1.059526,-0.05728 2.20496,-0.114544 2.519954,-0.14318 0.48681,-0.05728 0.658626,0.14318 0.801803,0.83044 z"
       id="path18" />
    <path
       style="stroke-width:0.02863584"
       inkscape:connector-curvature="0"
       d="m 165.97182,24.831014 -0.85907,0.229087 v 5.813075 c 0,3.207215 0.11454,5.984892 0.22909,6.156708 0.37226,0.601351 5.89898,0.486809 6.75805,-0.08591 l 0.65862,-0.458172 -0.20044,-5.498083 c -0.17182,-4.295377 -0.315,-5.58399 -0.65862,-5.984892 -0.34363,-0.400901 -0.88772,-0.486809 -2.74905,-0.458173 -1.28862,0 -2.69177,0.14318 -3.17858,0.28636 z m 5.01127,1.574971 c 0.45818,1.145434 0.4009,9.30665 -0.0572,9.593008 -0.48682,0.314995 -3.83722,0.658624 -4.38129,0.429537 -0.37227,-0.114542 -0.42954,-0.973618 -0.42954,-5.297632 v -5.15445 l 1.23135,-0.114544 c 3.14994,-0.286358 3.35038,-0.257722 3.63674,0.544081 z"
       id="path20" />
    <path
       style="stroke-width:0.02863584"
       inkscape:connector-curvature="0"
       d="m 160.0442,25.919175 c -0.8018,0.715897 -0.91634,1.002255 -0.8877,2.061781 0.11453,2.434047 2.69177,3.464937 4.20946,1.66088 1.05953,-1.231341 0.97362,-2.376775 -0.22908,-3.579481 -1.20272,-1.202705 -1.88997,-1.231341 -3.09268,-0.14318 z m 2.69177,1.002255 c 0.48681,0.68726 0.22909,1.889965 -0.48681,2.348141 -0.65862,0.429537 -0.77316,0.429537 -1.43179,0 -0.88771,-0.601353 -0.94498,-1.746788 -0.11454,-2.634499 0.51544,-0.544081 0.71589,-0.601353 1.23133,-0.34363 0.315,0.171815 0.68727,0.458174 0.80181,0.629988 z"
       id="path22" />
    <path
       style="stroke-width:0.02863584"
       inkscape:connector-curvature="0"
       d="m 27.231157,27.780506 c -0.601352,0.34363 -0.744532,0.658624 -0.859074,2.204959 -0.08591,0.973619 -0.02864,1.947238 0.143177,2.147689 0.14318,0.229087 1.030891,0.458172 1.918603,0.572718 2.834948,0.314993 3.951746,-0.572718 3.951746,-3.178579 0,-1.002255 -0.114545,-1.345885 -0.601352,-1.603608 -1.002256,-0.515445 -3.751296,-0.629988 -4.5531,-0.143179 z m 4.037654,1.202704 c 0.114543,0.05728 0.05727,0.658626 -0.143179,1.345887 l -0.343631,1.202704 h -1.689515 -1.718151 l -0.08591,-1.546336 -0.08591,-1.546335 1.918603,0.200451 c 1.059526,0.114545 2.033144,0.257723 2.147688,0.343629 z"
       id="path24" />
    <path
       style="stroke-width:0.02863584"
       inkscape:connector-curvature="0"
       d="m 19.413572,34.452658 -0.801805,0.515445 0.08591,9.02029 c 0.08591,6.013526 0.229087,9.278013 0.458173,9.793458 l 0.314995,0.801804 5.641261,-0.14318 c 3.522208,-0.08591 5.755804,-0.229087 5.956255,-0.429537 0.343629,-0.34363 0.687258,-6.843967 0.715897,-14.088834 0.02864,-3.550846 -0.05728,-4.581736 -0.372268,-4.89673 -0.458172,-0.429537 -2.319503,-0.658624 -7.903491,-0.916347 -2.834949,-0.14318 -3.407666,-0.08591 -4.094927,0.343631 z m 8.247123,1.145432 3.092671,0.171815 -0.200452,8.447575 c -0.114542,4.639006 -0.286358,8.590753 -0.372265,8.81984 -0.114544,0.286358 -1.202705,0.400901 -4.724914,0.458173 -2.519955,0.05728 -4.782186,0 -5.068544,-0.114544 -0.400903,-0.143178 -0.572718,-0.629988 -0.687261,-1.975872 -0.257723,-2.348141 -0.257723,-15.577899 0,-15.806987 0.229087,-0.257722 3.980383,-0.257722 7.960765,0 z"
       id="path26" />
    <path
       style="stroke-width:0.02863584"
       inkscape:connector-curvature="0"
       d="m 85.791459,41.382532 c -0.372266,0.229085 -0.74453,0.715895 -0.830444,1.059525 -0.17181,0.658625 -1.489062,0.973621 -4.180831,0.973621 -0.744533,0 -1.489063,0.171814 -1.660879,0.343629 -0.14318,0.200451 -0.372268,1.746786 -0.48681,3.407664 -0.171815,2.605862 -0.14318,3.092671 0.286358,3.493574 0.257722,0.257722 0.658625,0.48681 0.887713,0.48681 0.314992,0 0.400899,0.458172 0.400899,1.975872 0,2.806312 0.05728,2.834948 4.352648,2.749041 1.947238,-0.02864 3.608116,-0.08591 3.751295,-0.114545 0.114543,0 0.200456,-1.317248 0.200456,-2.920855 v -2.863584 l -1.03089,-1.002255 -1.059528,-0.973618 h 2.319503 c 2.691768,0 2.634501,0.05728 2.634501,-3.092671 0,-2.920855 -0.171818,-3.407665 -1.259983,-3.751296 -1.2027,-0.400903 -3.464937,-0.257722 -4.324008,0.229088 z m 4.238103,1.288612 c 0.05731,0.171815 0.05731,1.17407 -0.02866,2.233596 -0.14318,2.147689 -0.05723,2.090416 -2.462684,1.775422 -1.632239,-0.229087 -2.004504,-0.887711 -1.718144,-3.006762 l 0.171809,-1.374523 1.345889,-0.08591 c 1.689516,-0.114543 2.548587,0.02864 2.691768,0.458174 z m -5.240357,3.321759 c 0,0.944982 0.114543,1.71815 0.257724,1.71815 0.143179,0 0.314989,0.229086 0.400902,0.544081 0.114543,0.458173 -0.08592,0.54408 -1.918607,0.68726 -2.319503,0.200451 -2.74904,0.257723 -3.264485,0.601352 -0.314996,0.171816 -0.372266,-0.257722 -0.314996,-2.233595 0.05728,-1.345886 0.14318,-2.462683 0.229087,-2.491319 0.114543,0 1.002255,-0.08591 2.033146,-0.171814 1.03089,-0.05728 1.918605,-0.20045 1.975871,-0.257723 0.400904,-0.400902 0.601358,0.08591 0.601358,1.603608 z m 2.691769,5.813075 c 0.08591,0.830439 0.17181,1.832694 0.17181,2.262232 v 0.801804 h -3.293118 -3.293125 v -1.861331 c 0,-1.804058 0.02864,-1.832693 0.944985,-2.262231 0.887711,-0.429538 3.464934,-0.687261 4.667642,-0.515445 0.515446,0.08591 0.658626,0.372265 0.801806,1.574971 z"
       id="path28" />
    <path
       style="stroke-width:0.02863584"
       inkscape:connector-curvature="0"
       d="m 167.26044,45.534728 c 0,2.147688 0.17181,2.34814 2.40541,2.806313 1.94724,0.429538 2.03314,0.343631 2.29086,-2.119053 0.28636,-2.319503 0.0572,-2.519953 -2.57722,-2.519953 h -2.11905 z m 3.63675,0.544083 c -0.0573,0.74453 -0.17182,1.43179 -0.25772,1.489063 -0.0859,0.08591 -0.65862,0 -1.25998,-0.200451 -0.91635,-0.314994 -1.14544,-0.515445 -1.20271,-1.17407 -0.14317,-1.288613 0.0572,-1.489063 1.5177,-1.489063 h 1.34589 z"
       id="path30" />
    <path
       style="stroke-width:0.02863584"
       inkscape:connector-curvature="0"
       d="m 158.52651,46.221988 c -0.17182,0.114545 -0.2291,1.689515 -0.14319,4.209469 0.14319,3.980383 0.14319,4.009018 0.88771,4.352649 0.85908,0.429537 4.12357,0.601353 5.06855,0.257722 0.34363,-0.114543 0.62999,-0.34363 0.62999,-0.54408 0,-0.171816 0.17181,-0.08591 0.37227,0.171815 0.25772,0.4009 0.8877,0.515445 2.94949,0.54408 3.37902,0.08591 3.55084,-0.05728 3.55084,-2.777676 0,-2.863586 -0.28635,-3.121308 -3.86584,-3.121308 l -2.72041,-0.02864 v -1.317247 c 0,-0.715897 -0.14317,-1.431792 -0.34363,-1.632242 -0.37226,-0.372268 -5.89898,-0.48681 -6.38578,-0.114546 z m 5.29762,1.17407 c 0.20046,2.376775 0.25773,5.211724 0.11455,5.870348 l -0.17181,0.801804 -2.20497,-0.14318 c -1.20271,-0.114542 -2.20496,-0.171814 -2.2336,-0.200449 -0.0572,0 -0.0859,-1.489065 -0.0859,-3.264487 v -3.293123 l 2.29086,0.02864 c 1.25999,0 2.29087,0.08591 2.29087,0.20045 z m 5.84172,3.149943 c 0.8018,0.458173 0.88771,0.629989 0.88771,1.918601 v 1.403156 l -1.57497,0.171815 c -2.77768,0.257723 -2.86359,0.200453 -2.86359,-2.033143 v -1.947239 h 1.31725 c 0.71589,0 1.71815,0.229087 2.2336,0.48681 z"
       id="path32" />
    <path
       style="stroke-width:0.02863584"
       inkscape:connector-curvature="0"
       d="m 49.137576,49.944649 c -0.314994,0.343629 -0.143179,4.295377 0.229088,4.581734 0.229085,0.20045 1.374521,0.257723 3.178578,0.14318 3.092671,-0.200452 3.321759,-0.343631 3.321759,-2.519956 0,-1.660878 -0.34363,-1.832693 -5.211724,-2.233595 -0.744533,-0.08591 -1.431792,-0.05727 -1.517701,0.02864 z m 5.24036,1.660878 c 0.229087,0.05728 0.34363,0.458173 0.286359,1.03089 l -0.08591,0.944983 -2.319506,0.08591 -2.319502,0.08591 -0.02864,-1.317249 -0.02864,-1.31725 2.061781,0.171816 c 1.145433,0.114544 2.233595,0.229087 2.434046,0.314994 z"
       id="path34" />
    <path
       style="stroke-width:0.02863584"
       inkscape:connector-curvature="0"
       d="m 91.318175,50.173735 c -0.973615,0.515445 -1.374518,1.231342 -1.374518,2.491317 0,1.975874 2.319504,2.863586 4.553096,1.689516 1.832696,-0.944984 2.262236,-2.978128 0.801806,-3.894474 -1.002254,-0.601352 -3.092674,-0.773167 -3.980384,-0.286359 z m 3.4363,1.345885 c 1.116804,0.715896 -0.601349,2.262231 -2.348135,2.147688 -0.973623,-0.08591 -1.202708,-0.229087 -1.431793,-0.859075 -0.42954,-1.259978 0.31499,-1.889966 2.033143,-1.660878 0.773168,0.08591 1.546338,0.257722 1.746785,0.372265 z"
       id="path36" />
    <path
       style="stroke-width:0.02863584"
       inkscape:connector-curvature="0"
       d="m 65.173649,63.489403 c -2.691768,0.429537 -3.493573,2.405411 -1.718151,4.180831 0.916348,0.916348 1.145433,1.002256 2.20496,0.859076 1.718152,-0.229085 2.663134,-1.288614 2.634498,-2.920855 -0.02864,-2.033145 -0.687259,-2.462682 -3.121307,-2.119052 z m 1.832695,1.088161 c 0.658623,0.429537 0.458173,1.804058 -0.372267,2.519955 -1.030891,0.859075 -1.603608,0.830438 -2.577226,-0.171815 -0.68726,-0.715898 -0.744533,-0.916348 -0.458172,-1.460428 0.515445,-0.97362 2.46268,-1.489065 3.407665,-0.887712 z"
       id="path38" />
    <path
       style="stroke-width:0.02863584"
       inkscape:connector-curvature="0"
       d="m 32.958324,69.130663 c -0.859074,0.02864 -3.064032,0.257722 -4.868091,0.486809 -1.804058,0.229089 -3.722661,0.458174 -4.20947,0.486811 -0.544081,0.02864 -0.944983,0.229085 -0.944983,0.429538 0,0.515445 1.80406,0.486808 4.868093,-0.05728 1.345885,-0.229087 3.407666,-0.429538 4.581736,-0.458173 2.348138,-0.02864 3.464937,-0.257722 3.464937,-0.68726 -0.02864,-0.28636 -0.486811,-0.314995 -2.892222,-0.200453 z"
       id="path40" />
    <path
       style="stroke-width:0.02863584"
       inkscape:connector-curvature="0"
       d="m 141.14454,71.392897 c -0.0287,0.143178 -0.65862,0.429537 -1.37452,0.658623 -2.46268,0.830439 -3.23585,3.207215 -1.57497,4.868093 1.28861,1.288613 4.12357,0.801804 5.35491,-0.88771 0.83043,-1.116799 0.8018,-3.207214 -0.0573,-4.123561 -0.62999,-0.687261 -2.11905,-1.002256 -2.34814,-0.515445 z m 1.48907,1.202704 c 0.54408,0.372265 0.51545,2.090417 -0.0859,2.978128 -0.51545,0.801804 -2.00452,1.259976 -3.00677,0.944984 -0.8018,-0.257723 -1.34589,-1.660881 -0.94499,-2.434048 0.62999,-1.145433 3.12131,-2.061781 4.03766,-1.489064 z"
       id="path42" />
    <path
       style="stroke-width:0.02863584"
       inkscape:connector-curvature="0"
       d="m 131.49427,81.300899 c -0.42954,0.544083 -0.51545,23.968201 -0.0859,24.225921 0.17182,0.0859 2.06178,0.0859 4.26674,0 2.17632,-0.11454 6.0708,-0.28636 8.61938,-0.42954 2.9495,-0.11454 4.72492,-0.31499 4.81084,-0.51545 0.0572,-0.17181 0.14317,-5.32626 0.20044,-11.425692 0.0573,-7.989401 0,-11.167984 -0.22908,-11.368432 -0.17183,-0.143179 -3.80858,-0.314997 -8.07531,-0.400902 -4.23811,-0.08591 -8.04668,-0.229085 -8.44757,-0.31499 -0.45818,-0.11455 -0.83045,-0.02866 -1.05953,0.229085 z m 15.09108,1.517698 1.48907,0.14318 v 10.280268 10.251625 l -2.06178,0.17182 c -2.54859,0.20045 -10.76708,0.60135 -12.5425,0.60135 h -1.28861 l 0.0287,-5.297631 c 0.0287,-2.92085 0.14317,-7.760311 0.25772,-10.795708 l 0.22908,-5.498084 1.6036,-0.08591 c 2.00451,-0.143181 10.28027,0.02865 12.28478,0.229084 z"
       id="path44" />
    <path
       style="stroke-width:0.02863584"
       inkscape:connector-curvature="0"
       d="m 123.9344,89.605287 c -2.3195,1.202713 -2.86358,3.636758 -1.25997,5.498081 0.83043,0.97363 1.11679,1.116806 2.51995,1.231352 1.54633,0.114537 1.60361,0.0859 2.6345,-1.059537 0.85907,-0.97361 1.05952,-1.403157 1.05952,-2.405406 0,-1.660879 -1.08816,-3.235851 -2.51995,-3.608119 -1.23134,-0.372259 -1.05953,-0.400898 -2.43405,0.343629 z m 2.92086,1.489074 c 0.91634,0.887703 0.91634,2.92085 0,3.636739 -0.94498,0.773176 -2.43404,0.658629 -3.26448,-0.229083 -1.14544,-1.231333 -0.83044,-3.006768 0.65861,-3.9231 0.88772,-0.544083 1.66089,-0.400908 2.60587,0.515444 z"
       id="path46" />
    <path
       style="stroke-width:0.02863584"
       inkscape:connector-curvature="0"
       d="m 152.97115,90.235278 c -3.12131,2.834943 -0.34363,7.645775 3.57948,6.15671 2.46268,-0.944981 2.74904,-3.608119 0.62999,-5.898988 -1.5177,-1.660879 -2.57723,-1.718147 -4.20947,-0.257722 z m 4.00902,1.718157 c 0.71589,1.116786 0.68725,1.889962 -0.0859,2.863582 -0.54408,0.687259 -0.74453,0.773166 -1.88996,0.62999 -2.46269,-0.257722 -3.17858,-2.57723 -1.34589,-4.409924 l 0.97362,-0.97362 0.91635,0.515454 c 0.51544,0.286351 1.14543,0.887703 1.43179,1.374518 z"
       id="path48" />
    <path
       style="stroke-width:0.02863584"
       inkscape:connector-curvature="0"
       d="m 137.2787,108.13267 c -3.00676,1.8327 -1.97587,5.72718 1.51771,5.72718 1.17407,0 1.94723,-0.34363 3.06403,-1.37452 1.28862,-1.2027 0.83043,-2.97813 -1.05953,-4.29538 -1.14543,-0.77317 -2.3195,-0.8018 -3.52221,-0.0573 z m 2.9495,1.17408 c 1.94723,1.2027 1.40316,3.00676 -0.97362,3.32176 -1.40316,0.20045 -2.6345,-0.45818 -2.6345,-1.37452 0,-0.74454 0.74454,-2.17633 1.2027,-2.34815 0.74454,-0.31498 1.48908,-0.17181 2.40542,0.40091 z"
       id="path50" />
    <path
       style="stroke-width:0.02863584"
       inkscape:connector-curvature="0"
       d="m 154.97566,135.53718 c 0.0287,5.95626 0.4009,12.08433 0.77316,12.45659 0.74453,0.74453 0.77317,0.48681 0.51545,-7.64577 -0.22909,-7.2735 -0.31499,-8.16122 -0.88771,-8.16122 -0.34363,0 -0.42954,0.60136 -0.4009,3.3504 z"
       id="path52" />
    <path
       style="stroke-width:0.02863584"
       inkscape:connector-curvature="0"
       d="m 179.54521,132.38724 c 0,0.14317 0,3.83721 0.0287,8.24711 0.0287,7.76033 0.17181,9.19211 0.88771,8.16122 0.31499,-0.4868 0.20046,-15.74971 -0.14317,-16.26516 -0.2291,-0.37226 -0.74454,-0.45816 -0.77317,-0.14317 z"
       id="path54" />
    <path
       style="stroke-width:0.02863584"
       inkscape:connector-curvature="0"
       d="m 159.09922,134.67811 c 0.11454,0.60135 0.25772,3.55084 0.37226,6.58624 0.11454,3.00676 0.28636,5.58398 0.40091,5.6699 0.11454,0.11455 0.34364,0.11455 0.51544,0 0.22908,-0.14318 0.25772,-1.77543 0.14319,-5.6699 -0.20046,-6.27125 -0.37227,-7.44532 -1.08817,-7.5885 -0.42954,-0.0859 -0.48682,0.0573 -0.34363,1.00226 z"
       id="path56" />
    <path
       style="stroke-width:0.02863584"
       inkscape:connector-curvature="0"
       d="m 184.7283,134.24857 c 0,0.0287 -0.0859,2.94949 -0.17181,6.44306 -0.14319,5.78444 -0.11455,6.3858 0.28636,6.3858 0.25772,0 0.51544,-0.17182 0.60135,-0.37227 0.20044,-0.60135 0.34362,-10.91026 0.17181,-11.62615 -0.11454,-0.4009 -0.34363,-0.74453 -0.54408,-0.83044 -0.17181,-0.0573 -0.34363,-0.0573 -0.34363,0 z"
       id="path58" />
    <path
       style="stroke-width:0.02863584"
       inkscape:connector-curvature="0"
       d="m 163.99595,136.36762 c -0.34363,1.25998 0.14317,8.7053 0.54408,8.7053 0.20045,0 0.42954,-0.34363 0.51545,-0.77317 0.17181,-0.91635 -0.0573,-8.10394 -0.25773,-8.44757 -0.28636,-0.42954 -0.62999,-0.22909 -0.8018,0.51544 z"
       id="path60" />
    <path
       style="stroke-width:0.02863584"
       inkscape:connector-curvature="0"
       d="m 189.79685,139.6321 c -0.20046,3.14995 -0.0572,4.8681 0.40089,4.8681 0.45818,0 0.57273,-0.63 0.68726,-3.66538 0.11455,-3.32176 0,-4.35265 -0.57271,-4.35265 -0.22909,0 -0.40091,0.94497 -0.51544,3.14993 z"
       id="path62" />
    <path
       style="stroke-width:0.02863584"
       inkscape:connector-curvature="0"
       d="m 168.83541,137.39851 c -0.28636,0.74453 0,5.64126 0.37226,6.01353 0.62999,0.62999 0.8018,-0.14318 0.62999,-3.17857 -0.0859,-2.03316 -0.25772,-3.03541 -0.48681,-3.12132 -0.20045,-0.0573 -0.42953,0.0572 -0.51544,0.28636 z"
       id="path64" />
    <path
       style="stroke-width:0.02863584"
       inkscape:connector-curvature="0"
       d="m 172.9876,140.31936 c 0,2.20497 0.31499,2.92086 0.83044,1.9186 0.60135,-1.11679 0.28636,-4.03765 -0.42954,-4.03765 -0.31499,0 -0.4009,0.51544 -0.4009,2.11905 z"
       id="path66" />
    <path
       style="stroke-width:0.02863584"
       inkscape:connector-curvature="0"
       d="m 194.75084,140.60572 c 0,2.17633 0.28637,3.14995 0.77317,2.66314 0.34363,-0.34363 0.42955,-3.8372 0.11455,-4.43856 -0.62999,-1.17406 -0.88772,-0.65862 -0.88772,1.77542 z"
       id="path68" />
    <path
       style="stroke-width:0.02863584"
       inkscape:connector-curvature="0"
       d="m 197.81488,140.11891 c -0.11455,0.0859 -0.20044,0.54408 -0.20044,1.00226 0,0.91635 0.71588,1.11679 1.00225,0.25773 0.28636,-0.91635 -0.28637,-1.80406 -0.80181,-1.25999 z"
       id="path70" />
    <path
       style="stroke-width:0.02863584"
       inkscape:connector-curvature="0"
       d="m 176.59572,140.46255 c -0.0859,0.14317 0,0.31499 0.22909,0.4009 0.22909,0.0859 0.48681,-0.0286 0.57271,-0.25773 0.17182,-0.42953 -0.54408,-0.57271 -0.8018,-0.14317 z"
       id="path72" />
    <path
       style="stroke-width:0.02863584"
       inkscape:connector-curvature="0"
       d="m 72.33261,147.76468 c -1.345884,0.60137 -2.119052,1.63225 -2.319502,3.12132 -0.171816,1.25997 -0.114546,1.40315 0.830437,2.34814 0.887713,0.88771 1.174071,1.00225 2.491319,1.00225 1.689515,0 3.293123,-0.77317 3.608116,-1.77542 0.629989,-2.03315 -0.05727,-3.6654 -1.975874,-4.52447 -1.43179,-0.65862 -1.517698,-0.65862 -2.634496,-0.17182 z m 2.462682,1.48907 c 0.68726,0.20045 1.231342,1.40316 1.002255,2.26223 -0.400903,1.54633 -3.464937,1.9186 -4.352649,0.54408 -0.372265,-0.54408 -0.4009,-0.85907 -0.114543,-1.68952 0.48681,-1.51769 1.202706,-1.74677 3.464937,-1.11679 z"
       id="path74" />
    <path
       style="stroke-width:0.02863584"
       inkscape:connector-curvature="0"
       d="m 59.675566,161.71035 c -2.434045,2.11905 -2.663132,2.46267 -2.663132,3.89447 0,1.11679 0.14318,1.54633 0.658625,2.0045 1.002253,0.91635 1.77542,1.23135 3.149941,1.23135 1.088163,0 1.403158,-0.14318 2.004511,-0.83045 0.887709,-1.05952 1.174067,-2.54858 0.773168,-3.98038 -0.314997,-1.25997 -0.97362,-1.97587 -2.004511,-2.14768 -0.4009,-0.0859 -0.916345,-0.22908 -1.145433,-0.315 -0.229087,-0.0859 -0.572718,0 -0.773169,0.14319 z m 1.804059,1.34588 c 0.973618,0.62999 1.288612,2.94949 0.572718,3.9231 -0.458175,0.65863 -2.462683,0.74453 -3.149944,0.17182 -1.03089,-0.85906 -0.658625,-3.26448 0.601354,-4.00902 0.601352,-0.34363 1.5177,-0.4009 1.975872,-0.0859 z"
       id="path76" />
    <path
       style="stroke-width:0.02863584"
       inkscape:connector-curvature="0"
       d="m 168.69222,157.3577 c -0.94498,0.17181 -1.00224,0.25772 -1.23134,1.6036 -0.34363,2.06178 -0.14317,11.19662 0.25772,11.59751 0.40091,0.40091 4.69629,0.68726 5.1831,0.34364 0.62999,-0.4009 0.91634,-3.17859 0.85908,-8.13258 -0.0573,-4.40992 -0.11456,-4.81083 -0.63,-5.21173 -0.60135,-0.45816 -2.54859,-0.54408 -4.43856,-0.20044 z m 3.86585,2.09042 c 0.0859,0.83043 0.0573,3.5222 -0.0573,5.95624 l -0.22908,4.43857 -1.14544,-0.0287 c -0.62999,-0.0286 -1.48905,-0.0572 -1.9186,-0.0859 l -0.80181,-0.0286 v -5.38353 c 0,-2.9495 0.11455,-5.49808 0.22909,-5.6699 0.22909,-0.37227 1.1168,-0.60135 2.69176,-0.65863 l 1.05953,-0.0287 z"
       id="path78" />
    <path
       style="stroke-width:0.02863584"
       inkscape:connector-curvature="0"
       d="m 169.46539,160.19264 c -0.83043,0.88772 -0.4868,2.31951 0.68727,2.92085 0.45817,0.25773 0.74453,0.2291 1.28861,-0.14317 1.00225,-0.65863 0.88771,-1.66088 -0.25772,-2.54859 -1.14545,-0.88771 -1.14545,-0.88771 -1.71816,-0.22909 z m 1.46044,0.97362 c 0.57271,0.57272 0.40089,1.14543 -0.28636,1.03089 -0.42954,-0.0572 -0.68726,-0.31499 -0.74453,-0.74453 -0.11456,-0.68726 0.45816,-0.85907 1.03089,-0.28636 z"
       id="path80" />
    <path
       style="stroke-width:0.02863584"
       inkscape:connector-curvature="0"
       d="m 163.8814,168.72613 c -0.42953,0.31499 -0.62999,0.71589 -0.62999,1.40315 0,0.83044 0.11455,1.0309 0.7159,1.17407 0.4009,0.0859 1.14544,0.0859 1.68952,0 1.00226,-0.20045 1.31725,-0.68726 1.31725,-2.26223 0,-0.7159 -0.0859,-0.77318 -1.23134,-0.77318 -0.65862,0 -1.51771,0.20047 -1.86134,0.45819 z m 2.2336,0.77317 c 0,0.57271 -0.62999,1.05951 -1.34588,1.05951 -0.51545,0 -0.65863,-0.1718 -0.65863,-0.71588 0,-0.62999 0.11454,-0.7159 1.00226,-0.7159 0.62999,0 1.00225,0.14317 1.00225,0.37227 z"
       id="path82" />
    <g
       style="fill:#000000;stroke:none"
       transform="matrix(9.856693e-4,0,0,-9.856693e-4,109.05942,140.8929)"
       id="g8-3">
      <path
         inkscape:connector-curvature="0"
         d="M 0,10340 V 0 H 10240 20480 V 10340 20680 H 10240 0 Z m 11078,8497 c 19,-10 51,-46 76,-86 68,-106 53,-103 515,-100 458,2 436,7 505,-113 49,-85 39,-82 398,-88 364,-6 344,-1 407,-105 59,-96 71,-101 294,-97 173,3 192,1 231,-17 27,-13 51,-36 66,-62 67,-111 100,-129 236,-127 103,1 134,-15 184,-96 55,-92 72,-100 204,-106 128,-6 151,-15 192,-83 38,-61 62,-85 122,-124 37,-24 66,-54 96,-102 28,-44 54,-72 72,-79 16,-6 75,-12 131,-14 120,-4 136,-12 199,-104 25,-37 63,-74 100,-100 36,-25 74,-63 99,-99 63,-91 77,-99 208,-105 133,-7 154,-17 200,-98 17,-32 47,-66 70,-81 67,-45 115,-91 142,-136 14,-25 47,-59 73,-76 69,-46 90,-68 128,-126 19,-30 52,-64 76,-79 62,-38 86,-62 125,-122 21,-33 54,-66 86,-86 58,-38 80,-60 126,-128 17,-26 51,-59 74,-72 49,-29 94,-75 126,-129 13,-20 44,-51 69,-69 68,-45 90,-67 128,-125 23,-36 53,-65 96,-92 35,-22 70,-50 78,-63 10,-15 17,-60 20,-135 6,-130 13,-145 106,-208 37,-25 74,-63 99,-100 26,-37 63,-75 100,-100 91,-63 99,-77 105,-208 4,-72 11,-120 20,-135 8,-13 43,-41 77,-63 89,-56 97,-72 103,-205 6,-132 15,-150 104,-202 80,-47 96,-77 96,-182 0,-141 18,-174 123,-234 69,-39 86,-82 87,-210 v -99 l 43,-41 c 24,-22 59,-50 77,-61 72,-43 74,-53 80,-290 6,-247 5,-243 105,-304 99,-60 97,-53 99,-409 1,-354 -3,-338 102,-402 33,-20 67,-50 78,-70 21,-35 21,-40 21,-1550 0,-1510 0,-1515 -21,-1550 -11,-20 -45,-50 -78,-70 -105,-64 -101,-48 -102,-402 -2,-356 0,-349 -99,-409 -100,-61 -99,-57 -105,-304 -6,-237 -8,-247 -80,-290 -18,-11 -53,-39 -77,-61 l -43,-41 v -99 c -1,-128 -18,-171 -87,-210 -105,-60 -123,-93 -123,-234 0,-105 -16,-135 -96,-182 -89,-52 -98,-70 -104,-202 -6,-133 -14,-149 -103,-205 -34,-22 -69,-50 -77,-63 -9,-15 -16,-63 -20,-135 -6,-131 -14,-145 -105,-208 -37,-25 -74,-63 -100,-100 -25,-37 -62,-75 -99,-100 -93,-63 -100,-78 -106,-208 -3,-75 -10,-120 -20,-135 -8,-13 -43,-41 -78,-63 -43,-27 -73,-56 -96,-92 -38,-58 -60,-80 -128,-125 -25,-18 -56,-49 -69,-69 -32,-54 -77,-100 -126,-129 -23,-13 -57,-46 -74,-72 -46,-69 -68,-90 -126,-128 -30,-19 -64,-52 -79,-76 -38,-62 -62,-86 -122,-125 -33,-21 -66,-54 -86,-86 -38,-58 -60,-80 -128,-126 -26,-17 -59,-51 -73,-76 -27,-45 -75,-91 -142,-136 -23,-15 -53,-49 -70,-81 -46,-81 -67,-91 -200,-98 -131,-6 -145,-14 -208,-105 -25,-37 -63,-74 -100,-100 -38,-25 -75,-62 -100,-100 -26,-38 -63,-75 -101,-101 -36,-25 -74,-63 -99,-99 -63,-91 -77,-99 -208,-105 -132,-6 -149,-15 -200,-99 -51,-86 -69,-95 -202,-101 -134,-6 -149,-14 -205,-106 -50,-81 -81,-97 -184,-96 -136,2 -169,-16 -236,-127 -15,-26 -39,-49 -66,-62 -39,-18 -58,-20 -231,-17 -223,4 -235,-1 -294,-97 -61,-100 -57,-99 -304,-105 -238,-6 -245,-8 -292,-81 -38,-59 -76,-101 -102,-111 -17,-6 -205,-9 -512,-8 -576,1 -546,6 -615,-101 -73,-114 13,-104 -914,-104 -927,0 -841,-10 -914,104 -69,107 -39,102 -615,101 -307,-1 -495,2 -512,8 -26,10 -64,52 -102,111 -47,73 -54,75 -292,81 -247,6 -243,5 -304,105 -59,96 -71,101 -294,97 -173,-3 -192,-1 -231,17 -27,13 -51,36 -66,62 -67,111 -100,129 -236,127 -103,-1 -134,15 -184,96 -55,92 -72,100 -204,106 -128,6 -151,15 -192,83 -38,61 -62,85 -122,124 -37,24 -66,54 -96,102 -28,44 -54,72 -72,79 -16,6 -75,12 -131,14 -120,4 -136,12 -199,104 -25,37 -63,74 -100,100 -36,25 -74,63 -99,99 -63,91 -77,99 -208,105 -133,7 -154,17 -200,98 -17,32 -47,66 -70,81 -67,45 -115,91 -142,136 -14,25 -47,59 -73,76 -68,46 -90,68 -128,126 -20,32 -53,65 -86,86 -60,39 -84,63 -122,125 -15,24 -49,57 -79,76 -58,38 -80,59 -126,128 -17,26 -51,59 -74,72 -49,29 -94,75 -126,129 -13,20 -44,51 -69,69 -68,45 -90,67 -128,125 -23,36 -53,65 -96,92 -35,22 -70,50 -78,63 -10,15 -17,60 -20,135 -6,130 -13,145 -106,208 -37,25 -74,63 -99,100 -26,37 -63,75 -100,100 -91,63 -99,77 -105,208 -4,72 -11,120 -20,135 -8,13 -43,41 -77,63 -89,56 -97,72 -103,205 -6,132 -15,150 -104,202 -80,47 -96,77 -96,182 0,141 -18,174 -123,234 -69,39 -86,82 -87,210 v 99 l -43,41 c -24,22 -59,50 -77,61 -72,43 -74,53 -80,290 -6,247 -5,243 -105,304 -99,60 -97,53 -99,409 -1,354 3,338 -102,402 -33,20 -67,50 -78,70 -21,35 -21,41 -21,1450 0,1295 1,1418 16,1445 10,16 48,50 85,75 110,72 105,47 103,512 -2,458 -6,437 96,499 100,61 99,57 105,304 6,237 8,247 80,290 18,11 53,39 77,61 l 43,41 v 99 c 1,128 18,171 87,210 105,60 123,93 123,234 0,105 16,135 96,182 89,52 98,70 104,202 6,133 14,149 103,205 34,22 69,50 77,63 9,15 16,63 20,135 6,131 14,145 105,208 37,25 74,63 100,100 25,38 62,75 100,100 38,26 75,63 101,101 25,37 62,74 100,100 91,62 104,88 104,201 0,125 13,152 100,208 41,27 76,58 90,82 33,54 78,100 127,129 23,13 57,46 74,72 46,68 68,90 126,128 32,20 65,53 86,86 39,60 63,84 125,122 24,15 57,49 76,79 38,58 59,80 128,126 26,17 59,51 73,76 27,45 75,91 142,136 23,15 53,49 70,81 46,81 67,91 200,98 131,6 145,14 208,105 25,36 63,74 99,99 37,26 75,63 100,100 63,92 79,100 199,104 56,2 115,8 131,14 18,7 44,36 72,79 28,44 59,78 86,95 62,38 86,62 125,121 50,79 68,87 199,93 132,6 149,14 204,106 50,81 81,97 184,96 136,-2 169,16 236,127 15,26 39,49 66,62 39,18 58,20 231,17 223,-4 235,1 294,97 63,104 43,99 407,105 359,6 349,3 398,88 69,120 47,115 505,113 462,-3 447,-6 515,100 42,66 62,84 113,100 14,4 382,7 816,6 739,-2 792,-3 823,-20 z"
         id="path4-6" />
      <path
         inkscape:connector-curvature="0"
         d="m 10053,14999 c -50,-10 -73,-29 -117,-98 -57,-88 -83,-101 -209,-101 -107,0 -143,-16 -184,-80 -42,-66 -65,-91 -118,-124 -33,-22 -68,-57 -96,-97 -29,-41 -66,-79 -104,-104 -34,-23 -73,-61 -91,-88 -44,-66 -62,-85 -122,-123 -32,-21 -65,-54 -86,-86 -37,-59 -60,-81 -124,-121 -24,-16 -58,-51 -77,-81 -34,-53 -45,-64 -135,-129 -61,-44 -70,-66 -70,-172 -1,-123 -18,-160 -99,-210 -46,-28 -72,-53 -104,-101 -32,-48 -61,-76 -108,-107 -85,-56 -99,-84 -99,-207 0,-116 -14,-143 -99,-197 -43,-27 -71,-54 -101,-100 -31,-48 -58,-74 -106,-104 -85,-54 -96,-77 -98,-206 -3,-122 -10,-136 -102,-199 -37,-25 -74,-63 -100,-100 -25,-37 -62,-74 -100,-100 -91,-62 -104,-88 -104,-201 0,-124 -13,-150 -96,-203 -90,-57 -98,-72 -105,-205 -6,-132 -16,-151 -105,-205 -81,-49 -99,-83 -100,-190 -2,-143 -13,-165 -116,-224 -68,-38 -81,-69 -88,-203 -5,-107 -7,-114 -35,-143 -17,-18 -46,-40 -65,-50 -19,-10 -48,-32 -65,-50 -29,-30 -30,-35 -35,-148 -7,-138 -16,-158 -97,-204 -103,-58 -116,-94 -107,-308 9,-220 -1,-245 -125,-320 -26,-15 -49,-39 -62,-66 -19,-40 -20,-58 -17,-337 3,-339 -2,-320 103,-392 36,-25 75,-64 100,-100 22,-32 53,-68 68,-79 l 28,-21 1526,-2 c 1455,-2 1526,-3 1556,-20 66,-38 67,-44 67,-489 0,-463 6,-433 -104,-508 -38,-26 -75,-63 -100,-100 -26,-38 -63,-75 -100,-100 -37,-26 -75,-63 -100,-100 -63,-92 -77,-99 -209,-105 -189,-10 -197,-22 -197,-301 0,-235 2,-242 98,-304 54,-35 77,-57 106,-104 20,-33 48,-68 64,-78 26,-18 91,-19 1962,-19 1833,0 1937,1 1963,18 62,40 62,41 62,383 0,359 6,336 -101,409 -37,25 -74,63 -99,100 -26,38 -63,75 -101,101 -37,25 -74,62 -99,100 -24,34 -62,73 -93,94 -28,19 -64,47 -79,63 l -28,27 -3,413 c -3,460 -2,461 66,500 32,19 57,19 527,18 467,-2 497,-1 537,17 30,13 50,32 68,62 32,55 84,107 143,143 72,43 79,73 75,304 -3,221 -3,219 -103,288 -36,25 -75,64 -100,100 -75,109 -22,100 -603,101 -556,1 -550,0 -589,61 -17,26 -18,169 -23,2674 l -5,2648 -21,28 c -11,15 -36,38 -55,50 -66,42 -90,66 -127,121 -67,102 38,93 -1091,95 -544,1 -1003,-1 -1018,-4 z m -572,-2049 c 10,-6 26,-25 35,-42 15,-30 16,-174 15,-1753 -2,-1596 -3,-1723 -19,-1755 -9,-19 -31,-43 -49,-53 -31,-18 -76,-18 -948,-18 -911,0 -916,0 -949,21 -47,28 -66,81 -66,181 0,119 20,154 122,213 68,38 82,70 83,193 2,127 11,144 124,216 65,42 75,66 81,191 6,133 14,148 96,197 89,53 98,70 104,204 6,133 14,149 105,205 82,50 95,75 95,180 0,140 18,173 127,239 63,37 76,69 83,196 3,68 11,118 19,131 8,12 43,40 77,63 38,24 75,58 91,83 40,64 63,87 120,124 78,50 87,69 94,199 6,131 15,149 101,201 44,27 70,53 103,102 31,47 60,77 97,100 84,53 92,69 98,202 6,119 15,148 52,174 26,18 80,21 109,6 z"
         id="path6-7" />
    </g>
  </g>
</svg>
